*RUNCTRL
.FRIEND
AIMAll
.FPATH
/home/wagner/chemistry/gaussian/g09/g09                 
/home/wagner/programas/AIMAll/aimqb.ish -nogui -nproc=8
*VIBANA
GAUHESS
*INFRARED
SUMTERM
ANGSTRON
QCISD
RUN
.DQ
0.01
*END OF
