

 **************************************
 *                                    *
 *    OUTPUT FROM PROGRAM PLACZEK     *
 *                                    *
 **************************************
                                                             
 *  A Program Designed to Compute Infrared and Raman Spectra 
 *                                                           
 *  Written by Luciano N. Vidal                              
 *  Universidade Tecnologica Federal do Parana, Brazil       
 *                                                           
 *  If results obtained with this code are published,        
 *  an appropriate citation would be:                        
 *                                                           
 ** For Raman Properties:                                    
 *                                                           
 *  Vidal, L.N., P.A.M. Vazquez; Quim. Nova, 26(4), (2003), 507-511
 *  Vidal, L.N., P.A.M. Vazquez; Int. J. Quant. Chem., 103(5), (2005), 632-648
 *                                                           
 ** For Infrared Properties:                                 
 *                                                           
 *  Faria, S.H.D.M., da Silva Jr., J.V., Haiduke, R.L.A., Vidal, L.N.,
 *  Vazquez, P.A.M., Bruns, R.E.; J. Phys. Chem. A, 111, (2007), 7870-7875
 *                                                           
 *  NOTE:                                                    
 *                                                           
 *  This is an experimental code. The author accept no responsibility for the
 *  performance of the code or for the correctness of the results. Report
 *  bugs to lnvidal@utfpr.edu.br                          
 *                                                           
 ********************************
 * Release date: September.2020 *
 ********************************

       RUNCTRL OPTIONS
       ===============

       REMOTE   = F
       RESTART  = F
       FRIEND   = AIMAll              

       USE SYMMETRY  = F


       VIBANA OPTIONS
       ==============

       HF    = F
       MP2   = F
       CCS   = F
       CC2   = F
       CCSD  = F
       QCISD = F
       DHF   = F
       DFT   = F

       DALHESS    = F
       GAMHESS    = F
       GAUSHES    = T
       C4HESS     = F
       GRADHESS   = F

       RUN        = F


       INFRARED OPTIONS
       ================


       HF    = F
       MP2   = F
       CCS   = F
       CC2   = F
       CCSD  = F
       QCISD = T
       DHF   = F
       DFT   = F


       RUN  = T

       ANGSTROM = T


       OVERTONES = F

       EXPENSIVE DERIVATIVES = F


 *************************************
 **** OUTPUT FROM PROGRAM ROTOANA ****
 *************************************

 ------------------------------------------------------
 - ROTATIONAL ANALYSIS WAS DONE USING FRIEND.INP FILE -
 ------------------------------------------------------
                             x            y            z
 * Center of Mass (in A):    0.000000     0.000000     0.135454

 Inertia Tensor (in u*A^2)
 ------------------------- 
                   x              y              z
  x         1.776309       0.000000       0.000000
  y         0.000000       0.618626       0.000000
  z         0.000000       0.000000       1.157683

 Principal Moments and Principal Axes of Inertia
 -----------------------------------------------
                                 x       y       z
 IA  =      0.618626  u*A^2    ( 0.0000  1.0000  0.0000 )
 IB  =      1.157683  u*A^2    ( 0.0000  0.0000  1.0000 )
 IC  =      1.776309  u*A^2    ( 1.0000  0.0000  0.0000 )

 Principal Cartesian Coordinates 
 ------------------------------- 
       x                    y                    z
O      0.000000000000000    0.124327080914359    0.000000000000000
H      0.000000000000000   -0.986580552885319    1.432142179487065
H      0.000000000000000   -0.986580552885319   -1.432142179487065

 * Molecule Recognized as Non-Linear

 Rotational Constants
 --------------------
 A =       816938.62 MHz     (       27.250139 cm-1)
 B =       436543.63 MHz     (       14.561528 cm-1)
 C =       284510.89 MHz     (        9.490262 cm-1)
 * The molecule is an Asymmetric Top
 * The molecule is Planar

 Atom  Z   Isotopic Mass   Abundance        x             y             z
 O     8.      15.994915    99.762 %        0.000000      0.000000      0.201245
 H     1.       1.007825    99.985 %        0.000000      0.757857     -0.386622
 H     1.       1.007825    99.985 %        0.000000     -0.757857     -0.386622

 Total mass:          18.010565 amu
 Natural abundance:   99.732 %


 **************************************
 **** OUTPUT FROM PROGRAM SYMMETRY ****
 **************************************

 * Threshold to consider two distances equal (angstrom) : 5.00D-03

 * Threshold to consider two inertia moments equal : 1.00D-01


 * The following coordinates were used to locate the point group : 
   (center of mass in the origin)

   #  Atom  Z   Isotopic Mass        x             y             z
   1    O   8.      15.994915        0.000000      0.000000      0.065791
   2    H   1.       1.007825        0.000000      0.757857     -0.522076
   3    H   1.       1.007825        0.000000     -0.757857     -0.522076

 Interatomic distances (in A) 
 ---------------------------- 
            1 O      2 H      3 H 
   1 O    0.0000   0.9591   0.9591
   2 H    0.9591   0.0000   1.5157
   3 H    0.9591   1.5157   0.0000


 Symmetrically Equivalent Atoms (SEA): 
 -------------------------------------   
 Set | # Atoms | SEA 
   1 |     1   |    1

   2 |     2   |    2   3


 * The number of C_n^k axes found is :  1
   ---------------------------------
 Cn-Axis   n   k   theta         Direction (x y z)
    1      2   1     180    0.00000   0.00000  -1.00000

 * The number of reflexion planes found is :  2
   ---------------------------------------
 Plane    Normal vector (x y z)
   1      0.00000   1.00000   0.00000
   2      1.00000   0.00000   0.00000

 --------------------
 * Point group found: C2v 
 --------------------

 * Order of the group:    4

 * The number of atoms is:    3

 ************************************
 **** OUTPUT FROM PROGRAM VIBANA ****
 ************************************


 @ MOLECULAR HESSIAN READ FROM GAUSSIAN.log FILE                                


                         ==========================
                         =  ENERGY HESSIAN (a.u.) =
                         ==========================


                                1 O                           2 H 
                        X         Y         Z         X         Y         Z
                        1         2         3         4         5         6
         X   1  -0.000036  0.000000  0.000000  0.000015 -0.000002  0.000000
   1 O   Y   2   0.000000  0.690072  0.000000  0.000000 -0.345036  0.267671
         Z   3   0.000000  0.000000  0.463552  0.000000  0.205134 -0.231778

         X   4   0.000015  0.000000  0.000000 -0.000014  0.000002  0.000000
   2 H   Y   5  -0.000002 -0.345036  0.205134  0.000002  0.376636 -0.236402
         Z   6   0.000000  0.267671 -0.231778  0.000000 -0.236402  0.219694

         X   7   0.000015  0.000000  0.000000  0.000001  0.000001  0.000000
   3 H   Y   8   0.000002 -0.345034 -0.205135 -0.000002 -0.031602 -0.031266
         Z   9   0.000000 -0.267672 -0.231778  0.000000  0.031266  0.012086


                                3 H 
                        X         Y         Z
                        7         8         9
         X   1   0.000015  0.000002  0.000000
   1 O   Y   2   0.000000 -0.345034 -0.267672
         Z   3   0.000000 -0.205135 -0.231778

         X   4   0.000001 -0.000002  0.000000
   2 H   Y   5   0.000001 -0.031602  0.031266
         Z   6   0.000000 -0.031266  0.012086

         X   7  -0.000014 -0.000001  0.000000
   3 H   Y   8  -0.000001  0.376636  0.236402
         Z   9   0.000000  0.236402  0.219693



 *****************************************
 **** OUTPUT FROM PROGRAM POINT GROUP ****
 *****************************************



 Character Table
 --------------------------
 C2v   E   C2z  s(xz) s(yz)
 --------------------------
 A1    1.   1.   1.   1.
 A2    1.   1.  -1.  -1.
 B1    1.  -1.   1.  -1.
 B2    1.  -1.  -1.   1.
 --------------------------


 Translations, Rotations and
 Vibrations in each irreductive
 representation
------------------------------
 C2v     Trans  Rot   Vib   Tot
------------------------------
 A1       1     0     2     3
 A2       0     1     0     1
 B1       1     1     0     2
 B2       1     1     1     3
------------------------------
 Sum      3     3     3     9
------------------------------


 CARTESIAN COORDINATES 
 --------------------- 

  1  O     x     0.000000
  2        y     0.000000
  3        z     0.201245

  4  H     x     0.000000
  5        y     0.757857
  6        z    -0.386622

  7  H     x     0.000000
  8        y    -0.757857
  9        z    -0.386622


 SYMMETRY COORDINATES 
 -------------------- 

                                1 O                           2 H 
                        X         Y         Z         X         Y         Z
                        1         2         3         4         5         6
         A1    1   0.000000  0.000000  1.000000  0.000000  0.000000  0.000000
         A1    2   0.000000  0.000000  0.000000  0.000000  0.707107  0.000000
         A1    3   0.000000  0.000000  0.000000  0.000000  0.000000  0.707107

         A2    4   0.000000  0.000000  0.000000  0.707107  0.000000  0.000000

         B1    5   1.000000 -0.000000  0.000000  0.000000  0.000000  0.000000
         B1    6   0.000000  0.000000  0.000000  0.707107  0.000000  0.000000

         B2    7   0.000000  1.000000  0.000000  0.000000  0.000000  0.000000
         B2    8   0.000000  0.000000  0.000000  0.000000  0.707107  0.000000
         B2    9   0.000000  0.000000  0.000000  0.000000  0.000000  0.707107

                                3 H 
                        X         Y         Z
                        7         8         9
         A1    1   0.000000  0.000000  0.000000
         A1    2  -0.000000 -0.707107  0.000000
         A1    3   0.000000  0.000000  0.707107

         A2    4  -0.707107  0.000000  0.000000

         B1    5   0.000000  0.000000  0.000000
         B1    6   0.707107 -0.000000  0.000000

         B2    7   0.000000  0.000000  0.000000
         B2    8   0.000000  0.707107  0.000000
         B2    9   0.000000  0.000000 -0.707107


 -------------------------------------------------- 
 BLOCK-DIAGONALIZED ENERGY HESSIAN (hartree/bohr^2) 
 -------------------------------------------------- 

  A1  BLOCK
  ---------

               1         2         3
   1     0.46355   0.29010  -0.32778
   2     0.29010   0.40824  -0.20514
   3    -0.32778  -0.20514   0.23178


  A2  BLOCK
  ---------

               1
   1    -0.00001


  B1  BLOCK
  ---------

               1         2
   1    -0.00004   0.00002
   2     0.00002  -0.00001


  B2  BLOCK
  ---------

               1         2         3
   1     0.69007  -0.48795   0.37854
   2    -0.48795   0.34503  -0.26767
   3     0.37854  -0.26767   0.20761



 -------------
 @ POINT GROUP : C2v 
 ---------------------------
 IRREP   #   VIB FREQ / cm-1
 ---------------------------
 A1      1       3846.87 
 A1      2       1657.81 

 B2      3       3953.57 
 ---------------------------


 @  VIBRATIONAL FREQUENCIES  ( in cm-1 )               
    NORMAL COORDINATES       ( in bohr*sqrt(amu) ) and 
    REDUCED MASSES           ( in amu )                


 ----------------------------------------------------------------
 MODE #                 1         2         3         4         5
 VIB FREQ         3953.57   3846.87   1657.81      1.60      1.31 

 REDMASS           1.0818    1.0451    1.0828    5.7551    4.7950

 ----------------------------------------------------------------
         X   1  -0.000000  0.000000 -0.000001 -0.000084  0.229564
   1 O   Y   2  -0.067528 -0.000000 -0.000001  0.197177  0.000067
         Z   3   0.000000 -0.048760 -0.067966 -0.127124 -0.000054

         X   4  -0.000000 -0.000003  0.000012 -0.000106  0.279150
   2 H   Y   5   0.535863 -0.572305  0.410587  0.207426  0.000069
         Z   6  -0.415678  0.386927  0.539336 -0.113912 -0.000051

         X   7   0.000000 -0.000003  0.000011 -0.000098  0.279152
   3 H   Y   8   0.535856  0.572312 -0.410585  0.207425  0.000071
         Z   9   0.415674  0.386932  0.539332 -0.140332 -0.000059
 ----------------------------------------------------------------

 ------------------------------------------------------
 MODE #                 6         7         8         9
 VIB FREQ            1.77i    19.73i    19.80i    26.87i
 REDMASS           5.8750    1.1817    1.0078    1.0580
 ------------------------------------------------------
         X   1   0.000009 -0.099096  0.000300 -0.000000
   1 O   Y   2   0.126158 -0.000000 -0.000002  0.056258
         Z   3   0.198399  0.000001 -0.000000  0.000645

         X   4   0.000009  0.644537 -0.706316 -0.000009
   2 H   Y   5   0.134160 -0.000010  0.000004 -0.384640
         Z   6   0.208711 -0.000008  0.000007 -0.567728

         X   7   0.000014  0.648813  0.702390  0.000008
   3 H   Y   8   0.134158  0.000009  0.000003 -0.384642
         Z   9   0.188086 -0.000007 -0.000006  0.569023
 ------------------------------------------------------

 -------------------------------------------
 ----  CARTESIAN CHARGE TENSORS (a.u.)  ----
 -------------------------------------------


@       ATOMIC POLAR TENSOR FOR ATOM  O   1

              dX          dY          dZ

  d PX  -1.18962407  0.00000000  0.00000000
  d PY   0.00000000 -1.18962407  0.00000000
  d PZ   0.00000000  0.00000000 -1.18962407


@       ATOMIC POLAR TENSOR FOR ATOM  H   2

              dX          dY          dZ

  d PX   0.59481181  0.00000000  0.00000000
  d PY   0.00000000  0.59481181  0.00000000
  d PZ   0.00000000  0.00000000  0.59481181


@       ATOMIC POLAR TENSOR FOR ATOM  H   3

              dX          dY          dZ

  d PX   0.59481060  0.00000000  0.00000000
  d PY   0.00000000  0.59481060  0.00000000
  d PZ   0.00000000  0.00000000  0.59481060



 @ 
 @ GAPT Atomic Charges from => ATOMIC CHARGE TENSORS <=                       
 @ 
 @ J. Cioslowski, J. Am. Chem. Soc., 111(22), 8333-8336, 1989
 @ 

 -------------------------
 Atom  #     Charge / a.u.
 -------------------------
 O     1         -1.189624
 H     2          0.594812
 H     3          0.594811
 -------------------------
 Total Charge :  -0.000002
 -------------------------


 ----------------------------------------------------
 ----  CARTESIAN CHARGE TRANSFER TENSORS (a.u.)  ----
 ----------------------------------------------------


@       ATOMIC POLAR TENSOR FOR ATOM  O   1

              dX          dY          dZ

  d PX   0.00000000  0.00000000  0.00000000
  d PY   0.00000014  0.77409449  0.00000746
  d PZ   0.00004002  0.00000806  0.68003229


@       ATOMIC POLAR TENSOR FOR ATOM  H   2

              dX          dY          dZ

  d PX   0.00000000  0.00000000  0.00000000
  d PY  -0.00008225 -0.38706490  0.30033554
  d PZ  -0.00001553  0.24281187 -0.34004191


@       ATOMIC POLAR TENSOR FOR ATOM  H   3

              dX          dY          dZ

  d PX   0.00000000  0.00000000  0.00000000
  d PY  -0.00001400 -0.38707767 -0.30034311
  d PZ  -0.00003860 -0.24281574 -0.34005057



 @ 
 @ GAPT Atomic Charges from => ATOMIC CHARGE TRANSFER TENSORS <=              
 @ 
 @ J. Cioslowski, J. Am. Chem. Soc., 111(22), 8333-8336, 1989
 @ 

 -------------------------
 Atom  #     Charge / a.u.
 -------------------------
 O     1          0.484709
 H     2         -0.242369
 H     3         -0.242376
 -------------------------
 Total Charge :  -0.000036
 -------------------------


 --------------------------------------------------------
 ----  CARTESIAN DIPOLE POLARIZATION TENSORS (a.u.)  ----
 --------------------------------------------------------


@       ATOMIC POLAR TENSOR FOR ATOM  O   1

              dX          dY          dZ

  d PX   0.53161193 -0.00026235 -0.00044111
  d PY  -0.00034762 -0.07610244  0.00030044
  d PZ  -0.00036668  0.00024445  0.16208934


@       ATOMIC POLAR TENSOR FOR ATOM  H   2

              dX          dY          dZ

  d PX  -0.26546594 -0.00020791  0.00010475
  d PY  -0.00034933  0.03827003 -0.23602969
  d PZ  -0.00005573 -0.16770279 -0.08123371


@       ATOMIC POLAR TENSOR FOR ATOM  H   3

              dX          dY          dZ

  d PX  -0.26605136  0.00049514  0.00035926
  d PY   0.00073859  0.03781450  0.23567553
  d PZ   0.00029484  0.16743305 -0.08081533



 @ 
 @ GAPT Atomic Charges from => ATOMIC DIPOLE POLARIZATION TENSORS <=          
 @ 
 @ J. Cioslowski, J. Am. Chem. Soc., 111(22), 8333-8336, 1989
 @ 

 -------------------------
 Atom  #     Charge / a.u.
 -------------------------
 O     1          0.205866
 H     2         -0.102810
 H     3         -0.103017
 -------------------------
 Total Charge :   0.000039
 -------------------------


 ---------------------------------------------------
 ----  CARTESIAN MOLECULAR POLAR TENSOR (a.u.)  ----
 ---------------------------------------------------


@       ATOMIC POLAR TENSOR FOR ATOM  O   1

              dX          dY          dZ

  d PX  -0.65801214 -0.00026235 -0.00044111
  d PY  -0.00034748 -0.49163202  0.00030789
  d PZ  -0.00032666  0.00025251 -0.34750243


@       ATOMIC POLAR TENSOR FOR ATOM  H   2

              dX          dY          dZ

  d PX   0.32934587 -0.00020791  0.00010475
  d PY  -0.00043158  0.24601695  0.06430585
  d PZ  -0.00007127  0.07510907  0.17353620


@       ATOMIC POLAR TENSOR FOR ATOM  H   3

              dX          dY          dZ

  d PX   0.32875923  0.00049514  0.00035926
  d PY   0.00072459  0.24554742 -0.06466758
  d PZ   0.00025624 -0.07538270  0.17394469



 @ 
 @ GAPT Atomic Charges from => TOTAL (C+CF+DF) ATOMIC POLAR TENSOR <=         
 @ 
 @ J. Cioslowski, J. Am. Chem. Soc., 111(22), 8333-8336, 1989
 @ 

 -------------------------
 Atom  #     Charge / a.u.
 -------------------------
 O     1         -0.499049
 H     2          0.249633
 H     3          0.249417
 -------------------------
 Total Charge :   0.000001
 -------------------------




 ************************************
 *   OUTPUT FROM PROGRAM INFRAINT   *
 ************************************

 -----------------------------------------------------------------------------------
 ATOMIC CONTRIBUTIONS TO THE IR INTENSITIES

 Ax = K.( \sum_b{ (dPx^a/dxb).(dxb/dQj) +
                  (dPx^a/dyb).(dyb/dQj) +
                  (dPx^a/dzb).(dzb/dQj) } ).(dPx/dQj)

 Ay = K.( \sum_b{ (dPy^a/dxb).(dxb/dQj) +
                  (dPy^a/dyb).(dyb/dQj) +
                  (dPy^a/dzb).(dzb/dQj) } ).(dPy/dQj)

 Az = K.( \sum_b{ (dPz^a/dxb).(dxb/dQj) +
                  (dPz^a/dyb).(dyb/dQj) +
                  (dPz^a/dzb).(dzb/dQj) } ).(dPz/dQj)

  K = 974.864 km.amu / (mol.e^2)

 Px^a = x-component of the atomic dipole moment of atom a
 Py^a = y-component of the atomic dipole moment of atom a
 Pz^a = z-component of the atomic dipole moment of atom a

 xb = x-coordinate of atom b
 yb = y-coordinate of atom b
 zb = z-coordinate of atom b
 -----------------------------------------------------------------------------------

 -------------------------------------------------------------------------------------------------------------
 MODE # 1 ( 3953.57 cm-1)
 -------------------------------------------------------------------------------------------------------------

  ATOM         Ax          Ay          Az      (Ax + Ay + Az)
 O    1        0.00       69.47       -0.00        69.47
 H    2       -0.00       -5.95        0.00        -5.95
 H    3        0.00       -5.95       -0.00        -5.95

 ----------------------------------------------
  ATOM        C         CT        DP      TOTAL
 O    1     19.03      0.00     50.44     69.47
 H    2     75.50    -84.90      3.44     -5.95
 H    3     75.51    -84.90      3.44     -5.95

 -------------------------------------------------------------------------------------------------------------
  ATOM       C.C      CT.CT     DP.DP      C.CT     CT.C       C.DP     DP.C      CT.DP     DP.CT     TOTAL
 O    1     56.21      0.00     50.23    -56.14      0.00     18.95    148.98      0.00   -148.77     69.47
 H    2    223.04    250.44      3.43   -222.73   -250.79     75.19     10.17    -84.54    -10.16     -5.95
 H    3    223.04    250.44      3.43   -222.72   -250.79     75.19     10.17    -84.55    -10.16     -5.95
 -------------------------------------------------------------------------------------------------------------
 Total intensity =   57.56 km/mol
 -------------------------------------------------------------------------------------------------------------

 -------------------------------------------------------------------------------------------------------------
 MODE # 2 ( 3846.87 cm-1)
 -------------------------------------------------------------------------------------------------------------

  ATOM         Ax          Ay          Az      (Ax + Ay + Az)
 O    1        0.00        0.00       14.08        14.08
 H    2       -0.00       -0.01       -4.97        -4.98
 H    3        0.00        0.01       -4.97        -4.95

 ----------------------------------------------
  ATOM        C         CT        DP      TOTAL
 O    1      3.69      0.00     10.39     14.08
 H    2     14.78    -18.42     -1.34     -4.98
 H    3     14.50    -18.12     -1.34     -4.95

 -------------------------------------------------------------------------------------------------------------
  ATOM       C.C      CT.CT     DP.DP      C.CT     CT.C       C.DP     DP.C      CT.DP     DP.CT     TOTAL
 O    1     29.31      0.00     19.30    -32.47      0.00      6.85     82.53      0.00    -91.43     14.08
 H    2    116.29    160.72     -2.49   -128.83   -145.07     27.33    -10.65    -34.07     11.80     -4.98
 H    3    116.29    160.74     -2.49   -128.84   -145.08     27.06    -10.64    -33.78     11.79     -4.95
 -------------------------------------------------------------------------------------------------------------
 Total intensity =    4.15 km/mol
 -------------------------------------------------------------------------------------------------------------

 -------------------------------------------------------------------------------------------------------------
 MODE # 3 ( 1657.81 cm-1)
 -------------------------------------------------------------------------------------------------------------

  ATOM         Ax          Ay          Az      (Ax + Ay + Az)
 O    1        0.00        0.00       -9.28        -9.28
 H    2       -0.00       -0.01       40.92        40.91
 H    3       -0.00        0.01       40.92        40.93

 ----------------------------------------------
  ATOM        C         CT        DP      TOTAL
 O    1     21.50      0.00    -30.79     -9.28
 H    2     85.32    -28.41    -15.99     40.91
 H    3     85.32    -28.40    -15.99     40.93

 -------------------------------------------------------------------------------------------------------------
  ATOM       C.C      CT.CT     DP.DP      C.CT     CT.C       C.DP     DP.C      CT.DP     DP.CT     TOTAL
 O    1     56.94      0.00     26.63    -16.84      0.00    -18.60    -81.53      0.00     24.11     -9.28
 H    2    225.94     22.24     13.84    -66.81    -75.23    -73.82    -42.35     24.57     12.52     40.91
 H    3    225.94     22.24     13.83    -66.81    -75.23    -73.81    -42.35     24.58     12.52     40.93
 -------------------------------------------------------------------------------------------------------------
 Total intensity =   72.56 km/mol
 -------------------------------------------------------------------------------------------------------------

 -----------------------------------------------------------------------------------
 DYNAMIC CONTRIBUTIONS TO THE IR INTENSITIES

 Ax = K.( (dPx/dxa).(dxa/dQj) +
          (dPx/dya).(dya/dQj) +
          (dPx/dza).(dza/dQj) ).(dPx/dQj)

 Ay = K.( (dPy/dxa).(dxa/dQj) +
          (dPy/dya).(dya/dQj) +
          (dPy/dza).(dza/dQj) ).(dPy/dQj)

 Az = K.( (dPz/dxa).(dxa/dQj) +
          (dPz/dya).(dya/dQj) +
          (dPz/dza).(dza/dQj) ).(dPz/dQj)

  K = 974.864 km.amu / (mol.e^2)

 Px = x-component of the molecular dipole moment
 Py = y-component of the molecular dipole moment
 Pz = z-component of the molecular dipole moment

 xa = x-coordinate of atom a
 ya = y-coordinate of atom a
 za = z-coordinate of atom a
 -----------------------------------------------------------------------------------

 -------------------------------------------------------------------------------------------------------------
 MODE # 1 ( 3953.57 cm-1)
 -------------------------------------------------------------------------------------------------------------

  ATOM         Ax          Ay          Az      (Ax + Ay + Az)
 O    1        0.00        7.86       -0.00         7.86
 H    2       -0.00       24.90       -0.00        24.90
 H    3        0.00       24.80        0.00        24.80

 ----------------------------------------------
  ATOM        C         CT        DP      TOTAL
 O    1     19.03    -12.38      1.22      7.86
 H    2     75.50    -78.71     28.10     24.90
 H    3     75.51    -78.71     28.01     24.80

 -------------------------------------------------------------------------------------------------------------
  ATOM       C.C      CT.CT     DP.DP      C.CT     CT.C       C.DP     DP.C      CT.DP     DP.CT     TOTAL
 O    1     56.21     36.53      1.21    -56.14    -36.58     18.95      3.60    -12.33     -3.59      7.86
 H    2    223.04    232.17     27.98   -222.73   -232.50     75.19     83.01    -78.38    -82.89     24.90
 H    3    223.04    232.18     27.89   -222.72   -232.50     75.19     82.73    -78.39    -82.61     24.80
 -------------------------------------------------------------------------------------------------------------
 Total intensity =   57.56 km/mol
 -------------------------------------------------------------------------------------------------------------

 -------------------------------------------------------------------------------------------------------------
 MODE # 2 ( 3846.87 cm-1)
 -------------------------------------------------------------------------------------------------------------

  ATOM         Ax          Ay          Az      (Ax + Ay + Az)
 O    1        0.00        0.00        1.08         1.08
 H    2        0.00        0.05        1.54         1.59
 H    3        0.00       -0.05        1.54         1.49

 ----------------------------------------------
  ATOM        C         CT        DP      TOTAL
 O    1      3.69     -2.11     -0.50      1.08
 H    2     14.78    -17.35      4.15      1.59
 H    3     14.50    -17.07      4.06      1.49

 -------------------------------------------------------------------------------------------------------------
  ATOM       C.C      CT.CT     DP.DP      C.CT     CT.C       C.DP     DP.C      CT.DP     DP.CT     TOTAL
 O    1     29.31     18.56     -0.93    -32.47    -16.75      6.85     -3.99     -3.92      4.42      1.08
 H    2    116.29    151.44      7.67   -128.83   -136.69     27.33     32.61    -32.10    -36.13      1.59
 H    3    116.29    151.46      7.58   -128.84   -136.70     27.06     32.62    -31.83    -36.14      1.49
 -------------------------------------------------------------------------------------------------------------
 Total intensity =    4.15 km/mol
 -------------------------------------------------------------------------------------------------------------

 -------------------------------------------------------------------------------------------------------------
 MODE # 3 ( 1657.81 cm-1)
 -------------------------------------------------------------------------------------------------------------

  ATOM         Ax          Ay          Az      (Ax + Ay + Az)
 O    1       -0.00        0.00        6.28         6.28
 H    2        0.00       -0.00       33.09        33.09
 H    3        0.00        0.00       33.18        33.19

 ----------------------------------------------
  ATOM        C         CT        DP      TOTAL
 O    1     21.50    -12.29     -2.93      6.28
 H    2     85.32    -22.26    -29.96     33.09
 H    3     85.32    -22.26    -29.88     33.19

 -------------------------------------------------------------------------------------------------------------
  ATOM       C.C      CT.CT     DP.DP      C.CT     CT.C       C.DP     DP.C      CT.DP     DP.CT     TOTAL
 O    1     56.94      9.63      2.53    -16.84    -32.55    -18.60     -7.76     10.63      2.29      6.28
 H    2    225.94     17.43     25.93    -66.81    -58.95    -73.82    -79.35     19.26     23.46     33.09
 H    3    225.94     17.43     25.84    -66.81    -58.95    -73.81    -79.11     19.26     23.39     33.19
 -------------------------------------------------------------------------------------------------------------
 Total intensity =   72.56 km/mol
 -------------------------------------------------------------------------------------------------------------



********************************************************************************
 THEORY LEVEL OF THE DIPOLE MOMENT: QCISD                          
********************************************************************************



          Dipole Moment / a.u. (Atomic Contrib.)
          --------------------------------------
          Charge        Dipole        Total
          --------------------------------------
     X    0.00000000    0.00001790    0.00001790
     Y    0.00000174    0.00001202    0.00001377
     Z   -1.32156125    0.59064343   -0.73091782

  Norm    1.32156125    0.59064343    0.73091782
          --------------------------------------



          Dipole Moment / Debye (Atomic Contrib.)
          --------------------------------------
          Charge        Dipole        Total
          --------------------------------------
     X    0.00000000    0.00004550    0.00004550
     Y    0.00000443    0.00003056    0.00003499
     Z   -3.35910473    1.50127974   -1.85782499

  Norm    3.35910473    1.50127974    1.85782499
          --------------------------------------




 ------------------------------------------------------- 
 MOLECULAR CHARGE TENSOR IN THE NORMAL COORDINATES BASIS 
 units = e / sqrt(amu)                                      
 ------------------------------------------------------- 

         d Q  1      d Q  2      d Q  3
  d PX   0.00000000 -0.00000384  0.00001484
  d PY   0.71780387  0.00000396  0.00000250
  d PZ  -0.00000367  0.51830608  0.72245693
  Norm   0.71780387  0.51830609  0.72245693



 ----------------------------------------------------------- 
 MOLECULAR CHARGE TRANSFER TENSOR IN THE NORMAL COORD. BASIS 
 units = e / sqrt(amu)                                      
 ----------------------------------------------------------- 

         d Q  1      d Q  2      d Q  3
  d PX   0.00000000  0.00000000  0.00000000
  d PY  -0.71679272 -0.00001498  0.00000065
  d PZ  -0.00000272 -0.57423494 -0.21362356
  Norm   0.71679272  0.57423494  0.21362356



 ----------------------------------------------------------- 
 MOLECULAR DIPOLE POLARIZ. TENSOR IN THE NORMAL COORD. BASIS 
 units = e / sqrt(amu)                                      
 ----------------------------------------------------------- 

         d Q  1      d Q  2      d Q  3
  d PX   0.00027742  0.00060513 -0.00001506
  d PY   0.24198624 -0.00041104 -0.00002528
  d PZ   0.00001212  0.12119600 -0.23601717
  Norm   0.24198640  0.12119820  0.23601717



 ------------------------------------------------------ 
 MOLECULAR POLAR TENSOR IN THE NORMAL COORDINATES BASIS 
 units = e / sqrt(amu)                                      
 ------------------------------------------------------ 

         d Q  1      d Q  2      d Q  3
  d PX   0.00027742  0.00060129 -0.00000022
  d PY   0.24299740 -0.00042206 -0.00002213
  d PZ   0.00000573  0.06526714  0.27281620
  Norm   0.24299756  0.06527127  0.27281620



   Vibrational Frequencies and IR Intensities
   ------------------------------------------

  ============================================================
  mode    frequency          IR intensity      Boltzmann(298K)
  ============================================================
       cm-1    hartrees     km/mol  (D/A)**2/amu
  ------------------------------------------------------------
   1  3953.57   0.018014      57.564    1.3623    0.999999995
   2  3846.87   0.017528       4.153    0.0983    0.999999991
   3  1657.81   0.007554      72.558    1.7172    0.999664546
  -----------------------------------------------------------


 ===============================================================================
 IRREP    #   g_k  VIB FREQ      IR Intensities       Boltzmann  Dipole Operator
 ===============================================================================
                     cm-1       km/mol  (D/A)**2/amu     298K     mu_x mu_y mu_z
  ------------------------------------------------------------------------------
  A1      1    1    3846.87      4.153     0.0983     1.0000000    ia   ia    a
  A1      2    1    1657.81     72.558     1.7172     0.9996645    ia   ia    a
  B2      3    1    3953.57     57.564     1.3623     1.0000000    ia    a   ia
  ------------------------------------------------------------------------------




      Host name     : pegasus                                 
      Date and time : Mon Oct 26 20:31:46 2020



      **************************************
      ****  END OF PLACZEK CALCULATION  ****
      **************************************


